…
The exciting aspect of momocs is that you can analyze and compare a bunch of shapes!

## let's start using another dataset - bot
bot

## Out (outlines)
##   - 40 outlines, 162 +/- 21 coords (in $coo)
##   - 2 classifiers (in $fac): 
## # A tibble: 40 x 2
##   type   fake 
##   <fct>  <fct>
## 1 whisky a    
## 2 whisky a    
## 3 whisky a    
## 4 whisky a    
## 5 whisky a    
## 6 whisky a    
## # ... with 34 more rows
##   - also: $ldk
…
## Stack and visualize
## - [ ] Take away other functions to see what they do.

bot %>% 
  coo_center() %>% 
  coo_alignxax() %>%
  coo_scale %>%
  coo_slidedirection("up") %T>% 
  print() %>% 
  stack()

## Out (outlines)
##   - 40 outlines, 162 +/- 21 coords (in $coo)
##   - 2 classifiers (in $fac): 
## # A tibble: 40 x 2
##   type   fake 
##   <fct>  <fct>
## 1 whisky a    
## 2 whisky a    
## 3 whisky a    
## 4 whisky a    
## 5 whisky a    
## 6 whisky a    
## # ... with 34 more rows
##   - also: $ldk
…
## # A tibble: 138 x 2
##       dx    dy
##    <dbl> <dbl>
##  1    0.    0.
##  2    3.  -21.
##  3    3.  -32.
##  4    6.  -53.
##  5    9.  -74.
##  6   11.  -84.
##  7   15. -105.
##  8   17. -126.
##  9   20. -147.
## 10   22. -158.
## # ... with 128 more rows
…
## you selected `norm=TRUE`, which is not recommended. See ?efourier

## 99% 
##  10

## 'nb.h' not provided and set to 10 (99% harmonic power)

## Now we have a Coe object
bot.f

## An OutCoe object [ elliptical Fourier analysis ]
## --------------------
##  - $coe: 40 outlines described, 10 harmonics
## # A tibble: 40 x 2
##   type   fake 
##   <fct>  <fct>
## 1 whisky a    
## 2 whisky a    
## 3 whisky a    
## 4 whisky a    
## 5 whisky a    
## 6 whisky a    
## # ... with 34 more rows
…
